{
	"num_nodes" : 3,
	"tree" : 
	{
		"geometryfun" : 
		{
			"id" : 0,
			"type" : "rat::dm::dfpolygon",
			"x" : 
			[
				-0.40000000000000002,
				0.40000000000000002,
				0.40000000000000002,
				1.5,
				0.90000000000000002,
				1.6000000000000001,
				0.5,
				0.20000000000000001,
				0.10000000000000001,
				-0.69999999999999996
			],
			"y" : 
			[
				-0.5,
				-0.20000000000000001,
				-0.69999999999999996,
				-0.40000000000000002,
				0.10000000000000001,
				0.80000000000000004,
				0.5,
				1.0,
				0.40000000000000002,
				0.69999999999999996
			]
		},
		"h0" : 0.080000000000000002,
		"id" : 2,
		"quad" : true,
		"scalingfun" : 
		{
			"id" : 1,
			"type" : "rat::dm::dfones"
		},
		"type" : "rat::dm::dfdistmesh2d"
	},
	"version" : "0.0.1"
}