<?xml version="1.0" encoding="UTF-8" standalone="no"?>
<!-- Created with Inkscape (http://www.inkscape.org/) -->

<svg
   width="89.407288mm"
   height="85.847931mm"
   viewBox="0 0 89.407289 85.847931"
   version="1.1"
   id="svg5"
   inkscape:version="1.3 (0e150ed6c4, 2023-07-21)"
   sodipodi:docname="high_valence_removal.svg"
   inkscape:export-filename="high_valence_removal.png"
   inkscape:export-xdpi="85.227951"
   inkscape:export-ydpi="85.227951"
   xmlns:inkscape="http://www.inkscape.org/namespaces/inkscape"
   xmlns:sodipodi="http://sodipodi.sourceforge.net/DTD/sodipodi-0.dtd"
   xmlns="http://www.w3.org/2000/svg"
   xmlns:svg="http://www.w3.org/2000/svg">
  <sodipodi:namedview
     id="namedview7"
     pagecolor="#ffffff"
     bordercolor="#999999"
     borderopacity="1"
     inkscape:showpageshadow="0"
     inkscape:pageopacity="0"
     inkscape:pagecheckerboard="0"
     inkscape:deskcolor="#d1d1d1"
     inkscape:document-units="mm"
     showgrid="false"
     inkscape:zoom="1.5287037"
     inkscape:cx="-10.466384"
     inkscape:cy="160.2665"
     inkscape:window-width="3643"
     inkscape:window-height="1593"
     inkscape:window-x="28"
     inkscape:window-y="69"
     inkscape:window-maximized="0"
     inkscape:current-layer="layer1" />
  <defs
     id="defs2" />
  <g
     inkscape:label="Layer 1"
     inkscape:groupmode="layer"
     id="layer1"
     transform="translate(-102.82133,-4.4085883)">
    <path
       style="fill:none;stroke:#ff009a;stroke-width:0.264583px;stroke-linecap:butt;stroke-linejoin:miter;stroke-opacity:0.956863"
       d="M 286.52592,52.864968 302.84958,47.13172 301.24106,33.663396"
       id="path2323" />
    <path
       style="fill:none;stroke:#ff009a;stroke-width:0.264583px;stroke-linecap:butt;stroke-linejoin:miter;stroke-opacity:0.956863"
       d="M 300.66215,71.594748 302.84958,47.13172 327.81029,33.561019"
       id="path2325" />
    <path
       style="fill:none;stroke:#ff009a;stroke-width:0.264583px;stroke-linecap:butt;stroke-linejoin:miter;stroke-opacity:0.956863"
       d="M 323.2736,73.92338 322.36462,53.135021 300.66215,71.59475"
       id="path2329"
       sodipodi:nodetypes="ccc" />
    <path
       style="fill:none;stroke:#00bdff;stroke-width:0.264583px;stroke-linecap:butt;stroke-linejoin:miter;stroke-opacity:1"
       d="M 314.74378,52.864968 327.81029,33.561018 340.56882,54.068232 323.2736,73.92338"
       id="path2012" />
    <g
       id="g1815"
       style="stroke:#ff009a;stroke-width:1.33183;stroke-opacity:1"
       transform="matrix(0.75084441,0,0,0.75084441,87.461028,-13.484981)">
      <path
         style="fill:none;stroke:#ff009a;stroke-width:0.35238px;stroke-linecap:butt;stroke-linejoin:miter;stroke-dasharray:none;stroke-dashoffset:0;stroke-opacity:1"
         d="M 67.274627,77.471481 63.857777,58.925076"
         id="path1794" />
      <path
         style="fill:none;stroke:#ff009a;stroke-width:0.352937;stroke-linecap:butt;stroke-linejoin:miter;stroke-dasharray:none;stroke-dashoffset:0;stroke-opacity:1"
         d="M 67.274627,77.471481 44.259656,84.873027"
         id="path1796" />
      <path
         style="fill:none;stroke:#ff009a;stroke-width:0.352937;stroke-linecap:butt;stroke-linejoin:miter;stroke-dasharray:none;stroke-dashoffset:0;stroke-opacity:1"
         d="M 67.274627,77.471481 99.243575,58.788725"
         id="path1798" />
      <path
         style="fill:none;stroke:#ff009a;stroke-width:0.352937;stroke-linecap:butt;stroke-linejoin:miter;stroke-dasharray:none;stroke-dashoffset:0;stroke-opacity:1"
         d="m 67.274627,77.471481 -4.18787,31.971859"
         id="path1800" />
      <path
         style="fill:none;stroke:#ff009a;stroke-width:0.352937;stroke-linecap:butt;stroke-linejoin:miter;stroke-dasharray:none;stroke-dashoffset:0;stroke-opacity:1"
         d="m 99.243575,58.788725 -4.33368,33.58307 -31.823138,17.071545"
         id="path1802" />
      <path
         style="fill:none;stroke:#ff009a;stroke-width:0.352937;stroke-linecap:butt;stroke-linejoin:miter;stroke-dasharray:none;stroke-dashoffset:0;stroke-opacity:1"
         d="M 93.201468,112.54469 94.909893,92.371793"
         id="path1804" />
      <path
         style="fill:none;stroke:#ff009a;stroke-width:0.352937;stroke-linecap:butt;stroke-linejoin:miter;stroke-dasharray:none;stroke-dashoffset:0;stroke-opacity:1"
         d="m 94.909893,92.371793 14.274117,-6.07472"
         id="path1806" />
    </g>
    <path
       style="fill:none;stroke:#00bdff;stroke-width:0.264583px;stroke-linecap:butt;stroke-linejoin:miter;stroke-opacity:1"
       d="M 135.40827,30.758581 150.19375,15.537487"
       id="path1682" />
    <path
       style="fill:none;stroke:#00bdff;stroke-width:0.264583px;stroke-linecap:butt;stroke-linejoin:miter;stroke-opacity:1"
       d="M 161.9775,30.656204 150.19375,15.537487"
       id="path1684" />
    <path
       style="fill:none;stroke:#00bdff;stroke-width:0.264583px;stroke-linecap:butt;stroke-linejoin:miter;stroke-opacity:1"
       d="M 169.44122,51.310692 190.94584,33.574397 161.9775,30.656204 148.91099,49.960156"
       id="path1680" />
    <path
       style="fill:none;stroke:#00bdff;stroke-width:0.264583px;stroke-linecap:butt;stroke-linejoin:miter;stroke-opacity:1"
       d="m 148.91099,49.960156 20.53023,1.350536 15.21914,17.612615 -27.21955,2.095261"
       id="path1678" />
    <path
       style="fill:none;stroke:#00bdff;stroke-width:0.264583px;stroke-linecap:butt;stroke-linejoin:miter;stroke-opacity:1"
       d="m 148.91099,49.960156 -14.08163,18.729781 9.28744,19.071129 13.32401,-16.742498 -8.52982,-21.058412"
       id="path1676" />
    <path
       style="fill:none;stroke:#00bdff;stroke-width:0.264583px;stroke-linecap:butt;stroke-linejoin:miter;stroke-opacity:1"
       d="m 134.82936,68.689937 -23.71674,5.208119 9.58051,-23.9379 h 28.21786 l -13.50272,-19.201575 -22.02363,1.282764 7.30849,18.200111"
       id="path1618" />
    <circle
       style="fill:#3771c8;stroke-width:1.465"
       id="path1205"
       cx="120.69315"
       cy="49.960155"
       r="1.2827628" />
    <circle
       style="fill:#3771c8;stroke-width:1.465"
       id="path1205-3"
       cx="135.40828"
       cy="30.758583"
       r="1.2827628" />
    <circle
       style="fill:#3771c8;stroke-width:1.465"
       id="path1205-3-6"
       cx="113.38464"
       cy="32.041344"
       r="1.2827628" />
    <circle
       style="fill:#ff8400;fill-opacity:1;stroke-width:1.465"
       id="path1205-3-6-0"
       cx="137.9738"
       cy="44.684044"
       r="1.2827628" />
    <circle
       style="fill:#ff8400;fill-opacity:1;stroke-width:1.465"
       id="path1205-3-6-0-9"
       cx="158.72362"
       cy="55.871861"
       r="1.2827628" />
    <circle
       style="fill:#ff8400;fill-opacity:1;stroke-width:1.465"
       id="path1205-3-6-0-7"
       cx="302.84958"
       cy="47.131721"
       r="1.2827628" />
    <circle
       style="fill:#66ff00;stroke-width:1.465"
       id="path1205-3-6-7"
       cx="148.911"
       cy="49.960155"
       r="1.2827628" />
    <circle
       style="fill:#3771c8;stroke-width:1.465"
       id="path1205-3-6-7-5"
       cx="150.19377"
       cy="15.537488"
       r="1.2827628" />
    <circle
       style="fill:#3771c8;stroke-width:1.465"
       id="path1205-3-6-7-5-3"
       cx="161.97752"
       cy="30.656204"
       r="1.2827628" />
    <circle
       style="fill:#3771c8;stroke-width:1.465"
       id="path1205-3-6-7-5-3-5"
       cx="157.44084"
       cy="71.01857"
       r="1.2827628" />
    <circle
       style="fill:#3771c8;stroke-width:1.465"
       id="path1205-3-6-7-5-3-5-2"
       cx="184.395"
       cy="68.689934"
       r="1.2827628" />
    <circle
       style="fill:#3771c8;stroke-width:1.465"
       id="path1205-3-6-7-5-3-5-2-7"
       cx="169.44124"
       cy="51.310696"
       r="1.2827628" />
    <circle
       style="fill:#3771c8;stroke-width:1.465"
       id="path1205-3-6-7-5-3-5-6"
       cx="190.94585"
       cy="33.221733"
       r="1.2827628" />
    <circle
       style="fill:#3771c8;stroke-width:1.465"
       id="path1205-3-6-7-5-3-5-6-2"
       cx="144.11681"
       cy="87.537537"
       r="1.2827628" />
    <circle
       style="fill:#3771c8;stroke-width:1.465"
       id="path1205-3-6-7-5-3-5-6-2-9"
       cx="134.82936"
       cy="68.689934"
       r="1.2827628" />
    <circle
       style="fill:#3771c8;stroke-width:1.465"
       id="path1205-3-6-7-5-3-5-6-2-9-1"
       cx="111.11263"
       cy="73.584084"
       r="1.2827628" />
    <path
       style="fill:none;stroke:#00bdff;stroke-width:0.264583px;stroke-linecap:butt;stroke-linejoin:miter;stroke-opacity:1"
       d="M 301.24106,33.663396 316.02654,18.442302"
       id="path1682-7" />
    <path
       style="fill:none;stroke:#00bdff;stroke-width:0.264583px;stroke-linecap:butt;stroke-linejoin:miter;stroke-opacity:1"
       d="M 327.81029,33.561019 316.02654,18.442302"
       id="path1684-9" />
    <path
       style="fill:none;stroke:#00bdff;stroke-width:0.264583px;stroke-linecap:butt;stroke-linejoin:miter;stroke-opacity:1"
       d="m 314.74378,52.86497 -14.08163,18.72978 9.28744,19.07113 13.32401,-16.7425 -8.52982,-21.05841"
       id="path1676-2" />
    <path
       style="fill:none;stroke:#00bdff;stroke-width:0.264583px;stroke-linecap:butt;stroke-linejoin:miter;stroke-opacity:1"
       d="m 300.66215,71.59475 -23.71674,5.20812 9.58051,-23.9379 h 28.21786 l -13.50272,-19.201574 -22.02363,1.282764 7.30849,18.20011"
       id="path1618-3" />
    <circle
       style="fill:#3771c8;stroke-width:1.465"
       id="path1205-7"
       cx="286.52594"
       cy="52.864971"
       r="1.2827628" />
    <circle
       style="fill:#3771c8;stroke-width:1.465"
       id="path1205-3-5"
       cx="301.24106"
       cy="33.663403"
       r="1.2827628" />
    <circle
       style="fill:#3771c8;stroke-width:1.465"
       id="path1205-3-6-9"
       cx="279.21744"
       cy="34.946163"
       r="1.2827628" />
    <circle
       style="fill:#66ff00;stroke-width:1.465"
       id="path1205-3-6-7-8"
       cx="314.74377"
       cy="52.864971"
       r="1.2827628" />
    <circle
       style="fill:#3771c8;stroke-width:1.465"
       id="path1205-3-6-7-5-9"
       cx="316.02655"
       cy="18.442303"
       r="1.2827628" />
    <circle
       style="fill:#3771c8;stroke-width:1.465"
       id="path1205-3-6-7-5-3-7"
       cx="327.8103"
       cy="33.561024"
       r="1.2827628" />
    <circle
       style="fill:#3771c8;stroke-width:1.465"
       id="path1205-3-6-7-5-3-5-3"
       cx="323.27362"
       cy="73.923393"
       r="1.2827628" />
    <circle
       style="fill:#3771c8;stroke-width:1.465"
       id="path1205-3-6-7-5-3-5-2-6"
       cx="340.56882"
       cy="54.068233"
       r="1.2827628" />
    <circle
       style="fill:#3771c8;stroke-width:1.465"
       id="path1205-3-6-7-5-3-5-6-2-3"
       cx="309.94958"
       cy="90.44236"
       r="1.2827628" />
    <circle
       style="fill:#3771c8;stroke-width:1.465"
       id="path1205-3-6-7-5-3-5-6-2-9-19"
       cx="300.66214"
       cy="71.594749"
       r="1.2827628" />
    <circle
       style="fill:#3771c8;stroke-width:1.465"
       id="path1205-3-6-7-5-3-5-6-2-9-1-4"
       cx="276.9454"
       cy="76.488899"
       r="1.2827628" />
    <path
       style="fill:none;stroke:#ff009a;stroke-width:0.264583px;stroke-linecap:butt;stroke-linejoin:miter;stroke-opacity:1"
       d="m 322.36462,53.135021 5.44567,-19.574003"
       id="path2327"
       sodipodi:nodetypes="cc" />
    <circle
       style="fill:#ff8400;fill-opacity:1;stroke-width:1.465"
       id="path1205-3-6-0-9-8"
       cx="322.36462"
       cy="53.135021"
       r="1.2827628" />
    <text
       xml:space="preserve"
       style="font-style:normal;font-weight:normal;font-size:4.93889px;line-height:1.25;font-family:sans-serif;fill:#000000;fill-opacity:1;stroke:none;stroke-width:0.264583"
       x="270.81125"
       y="12.218492"
       id="text3309"><tspan
         sodipodi:role="line"
         id="tspan3307"
         style="font-size:4.93889px;stroke-width:0.264583"
         x="270.81125"
         y="12.218492">valence 5</tspan></text>
    <text
       xml:space="preserve"
       style="font-style:normal;font-weight:normal;font-size:4.93889px;line-height:1.25;font-family:sans-serif;fill:#000000;fill-opacity:1;stroke:none;stroke-width:0.264583"
       x="104.47083"
       y="9.7708139"
       id="text3309-4"><tspan
         sodipodi:role="line"
         id="tspan3307-5"
         style="font-size:4.93889px;stroke-width:0.264583"
         x="104.47083"
         y="9.7708139">valence 6</tspan></text>
  </g>
</svg>
